saida.out
OK:           0 +           0 = 00000
ERRO:           0 +           1 =  1, -> 00000 (cout=0, out=0000)
ERRO:           0 +           2 =  2, -> 00000 (cout=0, out=0000)
ERRO:           0 +           3 =  3, -> 00000 (cout=0, out=0000)
OK:           0 +           4 = 00100
ERRO:           0 +           5 =  5, -> 00100 (cout=0, out=0100)
ERRO:           0 +           6 =  6, -> 00100 (cout=0, out=0100)
ERRO:           0 +           7 =  7, -> 00100 (cout=0, out=0100)
ERRO:           0 +           8 =  8, -> 00000 (cout=0, out=0000)
ERRO:           0 +           9 =  9, -> 00000 (cout=0, out=0000)
ERRO:           0 +          10 = 10, -> 00000 (cout=0, out=0000)
ERRO:           0 +          11 = 11, -> 00000 (cout=0, out=0000)
ERRO:           0 +          12 = 12, -> 00100 (cout=0, out=0100)
ERRO:           0 +          13 = 13, -> 00100 (cout=0, out=0100)
ERRO:           0 +          14 = 14, -> 00100 (cout=0, out=0100)
ERRO:           0 +          15 = 15, -> 00100 (cout=0, out=0100)
OK:           1 +           0 = 00001
ERRO:           1 +           1 =  2, -> 00011 (cout=0, out=0011)
ERRO:           1 +           2 =  3, -> 00001 (cout=0, out=0001)
ERRO:           1 +           3 =  4, -> 00011 (cout=0, out=0011)
OK:           1 +           4 = 00101
ERRO:           1 +           5 =  6, -> 00111 (cout=0, out=0111)
ERRO:           1 +           6 =  7, -> 00101 (cout=0, out=0101)
ERRO:           1 +           7 =  8, -> 00111 (cout=0, out=0111)
ERRO:           1 +           8 =  9, -> 00001 (cout=0, out=0001)
ERRO:           1 +           9 = 10, -> 00011 (cout=0, out=0011)
ERRO:           1 +          10 = 11, -> 00001 (cout=0, out=0001)
ERRO:           1 +          11 = 12, -> 00011 (cout=0, out=0011)
ERRO:           1 +          12 = 13, -> 00101 (cout=0, out=0101)
ERRO:           1 +          13 = 14, -> 00111 (cout=0, out=0111)
ERRO:           1 +          14 = 15, -> 00101 (cout=0, out=0101)
ERRO:           1 +          15 = 16, -> 00111 (cout=0, out=0111)
OK:           2 +           0 = 00010
ERRO:           2 +           1 =  3, -> 00010 (cout=0, out=0010)
ERRO:           2 +           2 =  4, -> 01110 (cout=0, out=1110)
ERRO:           2 +           3 =  5, -> 01110 (cout=0, out=1110)
OK:           2 +           4 = 00110
ERRO:           2 +           5 =  7, -> 00110 (cout=0, out=0110)
ERRO:           2 +           6 =  8, -> 01010 (cout=0, out=1010)
ERRO:           2 +           7 =  9, -> 01010 (cout=0, out=1010)
ERRO:           2 +           8 = 10, -> 00010 (cout=0, out=0010)
ERRO:           2 +           9 = 11, -> 00010 (cout=0, out=0010)
ERRO:           2 +          10 = 12, -> 01110 (cout=0, out=1110)
ERRO:           2 +          11 = 13, -> 01110 (cout=0, out=1110)
ERRO:           2 +          12 = 14, -> 00110 (cout=0, out=0110)
ERRO:           2 +          13 = 15, -> 00110 (cout=0, out=0110)
ERRO:           2 +          14 = 16, -> 01010 (cout=0, out=1010)
ERRO:           2 +          15 = 17, -> 01010 (cout=0, out=1010)
OK:           3 +           0 = 00011
ERRO:           3 +           1 =  4, -> 01101 (cout=0, out=1101)
ERRO:           3 +           2 =  5, -> 01111 (cout=0, out=1111)
ERRO:           3 +           3 =  6, -> 01101 (cout=0, out=1101)
OK:           3 +           4 = 00111
ERRO:           3 +           5 =  8, -> 01001 (cout=0, out=1001)
ERRO:           3 +           6 =  9, -> 01011 (cout=0, out=1011)
ERRO:           3 +           7 = 10, -> 01001 (cout=0, out=1001)
ERRO:           3 +           8 = 11, -> 00011 (cout=0, out=0011)
ERRO:           3 +           9 = 12, -> 01101 (cout=0, out=1101)
ERRO:           3 +          10 = 13, -> 01111 (cout=0, out=1111)
ERRO:           3 +          11 = 14, -> 01101 (cout=0, out=1101)
ERRO:           3 +          12 = 15, -> 00111 (cout=0, out=0111)
ERRO:           3 +          13 = 16, -> 01001 (cout=0, out=1001)
ERRO:           3 +          14 = 17, -> 01011 (cout=0, out=1011)
ERRO:           3 +          15 = 18, -> 01001 (cout=0, out=1001)
ERRO:           4 +           0 =  4, -> 00000 (cout=0, out=0000)
ERRO:           4 +           1 =  5, -> 00000 (cout=0, out=0000)
ERRO:           4 +           2 =  6, -> 00000 (cout=0, out=0000)
ERRO:           4 +           3 =  7, -> 00000 (cout=0, out=0000)
ERRO:           4 +           4 =  8, -> 00100 (cout=0, out=0100)
ERRO:           4 +           5 =  9, -> 00100 (cout=0, out=0100)
ERRO:           4 +           6 = 10, -> 00100 (cout=0, out=0100)
ERRO:           4 +           7 = 11, -> 00100 (cout=0, out=0100)
ERRO:           4 +           8 = 12, -> 00000 (cout=0, out=0000)
ERRO:           4 +           9 = 13, -> 00000 (cout=0, out=0000)
ERRO:           4 +          10 = 14, -> 00000 (cout=0, out=0000)
ERRO:           4 +          11 = 15, -> 00000 (cout=0, out=0000)
ERRO:           4 +          12 = 16, -> 00100 (cout=0, out=0100)
ERRO:           4 +          13 = 17, -> 00100 (cout=0, out=0100)
ERRO:           4 +          14 = 18, -> 00100 (cout=0, out=0100)
ERRO:           4 +          15 = 19, -> 00100 (cout=0, out=0100)
ERRO:           5 +           0 =  5, -> 00001 (cout=0, out=0001)
ERRO:           5 +           1 =  6, -> 00011 (cout=0, out=0011)
ERRO:           5 +           2 =  7, -> 00001 (cout=0, out=0001)
ERRO:           5 +           3 =  8, -> 00011 (cout=0, out=0011)
ERRO:           5 +           4 =  9, -> 00101 (cout=0, out=0101)
ERRO:           5 +           5 = 10, -> 00111 (cout=0, out=0111)
ERRO:           5 +           6 = 11, -> 00101 (cout=0, out=0101)
ERRO:           5 +           7 = 12, -> 00111 (cout=0, out=0111)
ERRO:           5 +           8 = 13, -> 00001 (cout=0, out=0001)
ERRO:           5 +           9 = 14, -> 00011 (cout=0, out=0011)
ERRO:           5 +          10 = 15, -> 00001 (cout=0, out=0001)
ERRO:           5 +          11 = 16, -> 00011 (cout=0, out=0011)
ERRO:           5 +          12 = 17, -> 00101 (cout=0, out=0101)
ERRO:           5 +          13 = 18, -> 00111 (cout=0, out=0111)
ERRO:           5 +          14 = 19, -> 00101 (cout=0, out=0101)
ERRO:           5 +          15 = 20, -> 00111 (cout=0, out=0111)
ERRO:           6 +           0 =  6, -> 00010 (cout=0, out=0010)
ERRO:           6 +           1 =  7, -> 00010 (cout=0, out=0010)
ERRO:           6 +           2 =  8, -> 01110 (cout=0, out=1110)
ERRO:           6 +           3 =  9, -> 01110 (cout=0, out=1110)
ERRO:           6 +           4 = 10, -> 00110 (cout=0, out=0110)
ERRO:           6 +           5 = 11, -> 00110 (cout=0, out=0110)
ERRO:           6 +           6 = 12, -> 01010 (cout=0, out=1010)
ERRO:           6 +           7 = 13, -> 01010 (cout=0, out=1010)
ERRO:           6 +           8 = 14, -> 00010 (cout=0, out=0010)
ERRO:           6 +           9 = 15, -> 00010 (cout=0, out=0010)
ERRO:           6 +          10 = 16, -> 01110 (cout=0, out=1110)
ERRO:           6 +          11 = 17, -> 01110 (cout=0, out=1110)
ERRO:           6 +          12 = 18, -> 00110 (cout=0, out=0110)
ERRO:           6 +          13 = 19, -> 00110 (cout=0, out=0110)
ERRO:           6 +          14 = 20, -> 01010 (cout=0, out=1010)
ERRO:           6 +          15 = 21, -> 01010 (cout=0, out=1010)
ERRO:           7 +           0 =  7, -> 00011 (cout=0, out=0011)
ERRO:           7 +           1 =  8, -> 01101 (cout=0, out=1101)
ERRO:           7 +           2 =  9, -> 01111 (cout=0, out=1111)
ERRO:           7 +           3 = 10, -> 01101 (cout=0, out=1101)
ERRO:           7 +           4 = 11, -> 00111 (cout=0, out=0111)
ERRO:           7 +           5 = 12, -> 01001 (cout=0, out=1001)
ERRO:           7 +           6 = 13, -> 01011 (cout=0, out=1011)
ERRO:           7 +           7 = 14, -> 01001 (cout=0, out=1001)
ERRO:           7 +           8 = 15, -> 00011 (cout=0, out=0011)
ERRO:           7 +           9 = 16, -> 01101 (cout=0, out=1101)
ERRO:           7 +          10 = 17, -> 01111 (cout=0, out=1111)
ERRO:           7 +          11 = 18, -> 01101 (cout=0, out=1101)
ERRO:           7 +          12 = 19, -> 00111 (cout=0, out=0111)
ERRO:           7 +          13 = 20, -> 01001 (cout=0, out=1001)
ERRO:           7 +          14 = 21, -> 01011 (cout=0, out=1011)
ERRO:           7 +          15 = 22, -> 01001 (cout=0, out=1001)
OK:           8 +           0 = 01000
ERRO:           8 +           1 =  9, -> 01000 (cout=0, out=1000)
ERRO:           8 +           2 = 10, -> 01000 (cout=0, out=1000)
ERRO:           8 +           3 = 11, -> 01000 (cout=0, out=1000)
OK:           8 +           4 = 01100
ERRO:           8 +           5 = 13, -> 01100 (cout=0, out=1100)
ERRO:           8 +           6 = 14, -> 01100 (cout=0, out=1100)
ERRO:           8 +           7 = 15, -> 01100 (cout=0, out=1100)
ERRO:           8 +           8 = 16, -> 11000 (cout=1, out=1000)
ERRO:           8 +           9 = 17, -> 11000 (cout=1, out=1000)
ERRO:           8 +          10 = 18, -> 11000 (cout=1, out=1000)
ERRO:           8 +          11 = 19, -> 11000 (cout=1, out=1000)
ERRO:           8 +          12 = 20, -> 11100 (cout=1, out=1100)
ERRO:           8 +          13 = 21, -> 11100 (cout=1, out=1100)
ERRO:           8 +          14 = 22, -> 11100 (cout=1, out=1100)
ERRO:           8 +          15 = 23, -> 11100 (cout=1, out=1100)
OK:           9 +           0 = 01001
ERRO:           9 +           1 = 10, -> 01011 (cout=0, out=1011)
ERRO:           9 +           2 = 11, -> 01001 (cout=0, out=1001)
ERRO:           9 +           3 = 12, -> 01011 (cout=0, out=1011)
OK:           9 +           4 = 01101
ERRO:           9 +           5 = 14, -> 01111 (cout=0, out=1111)
ERRO:           9 +           6 = 15, -> 01101 (cout=0, out=1101)
ERRO:           9 +           7 = 16, -> 01111 (cout=0, out=1111)
ERRO:           9 +           8 = 17, -> 11001 (cout=1, out=1001)
ERRO:           9 +           9 = 18, -> 11011 (cout=1, out=1011)
ERRO:           9 +          10 = 19, -> 11001 (cout=1, out=1001)
ERRO:           9 +          11 = 20, -> 11011 (cout=1, out=1011)
ERRO:           9 +          12 = 21, -> 11101 (cout=1, out=1101)
ERRO:           9 +          13 = 22, -> 11111 (cout=1, out=1111)
ERRO:           9 +          14 = 23, -> 11101 (cout=1, out=1101)
ERRO:           9 +          15 = 24, -> 11111 (cout=1, out=1111)
OK:          10 +           0 = 01010
ERRO:          10 +           1 = 11, -> 01010 (cout=0, out=1010)
ERRO:          10 +           2 = 12, -> 10110 (cout=1, out=0110)
ERRO:          10 +           3 = 13, -> 10110 (cout=1, out=0110)
OK:          10 +           4 = 01110
ERRO:          10 +           5 = 15, -> 01110 (cout=0, out=1110)
ERRO:          10 +           6 = 16, -> 10010 (cout=1, out=0010)
ERRO:          10 +           7 = 17, -> 10010 (cout=1, out=0010)
ERRO:          10 +           8 = 18, -> 11010 (cout=1, out=1010)
ERRO:          10 +           9 = 19, -> 11010 (cout=1, out=1010)
ERRO:          10 +          10 = 20, -> 10110 (cout=1, out=0110)
ERRO:          10 +          11 = 21, -> 10110 (cout=1, out=0110)
ERRO:          10 +          12 = 22, -> 11110 (cout=1, out=1110)
ERRO:          10 +          13 = 23, -> 11110 (cout=1, out=1110)
ERRO:          10 +          14 = 24, -> 10010 (cout=1, out=0010)
ERRO:          10 +          15 = 25, -> 10010 (cout=1, out=0010)
OK:          11 +           0 = 01011
ERRO:          11 +           1 = 12, -> 10101 (cout=1, out=0101)
ERRO:          11 +           2 = 13, -> 10111 (cout=1, out=0111)
ERRO:          11 +           3 = 14, -> 10101 (cout=1, out=0101)
OK:          11 +           4 = 01111
ERRO:          11 +           5 = 16, -> 10001 (cout=1, out=0001)
ERRO:          11 +           6 = 17, -> 10011 (cout=1, out=0011)
ERRO:          11 +           7 = 18, -> 10001 (cout=1, out=0001)
ERRO:          11 +           8 = 19, -> 11011 (cout=1, out=1011)
ERRO:          11 +           9 = 20, -> 10101 (cout=1, out=0101)
ERRO:          11 +          10 = 21, -> 10111 (cout=1, out=0111)
ERRO:          11 +          11 = 22, -> 10101 (cout=1, out=0101)
ERRO:          11 +          12 = 23, -> 11111 (cout=1, out=1111)
ERRO:          11 +          13 = 24, -> 10001 (cout=1, out=0001)
ERRO:          11 +          14 = 25, -> 10011 (cout=1, out=0011)
ERRO:          11 +          15 = 26, -> 10001 (cout=1, out=0001)
ERRO:          12 +           0 = 12, -> 01000 (cout=0, out=1000)
ERRO:          12 +           1 = 13, -> 01000 (cout=0, out=1000)
ERRO:          12 +           2 = 14, -> 01000 (cout=0, out=1000)
ERRO:          12 +           3 = 15, -> 01000 (cout=0, out=1000)
ERRO:          12 +           4 = 16, -> 01100 (cout=0, out=1100)
ERRO:          12 +           5 = 17, -> 01100 (cout=0, out=1100)
ERRO:          12 +           6 = 18, -> 01100 (cout=0, out=1100)
ERRO:          12 +           7 = 19, -> 01100 (cout=0, out=1100)
ERRO:          12 +           8 = 20, -> 11000 (cout=1, out=1000)
ERRO:          12 +           9 = 21, -> 11000 (cout=1, out=1000)
ERRO:          12 +          10 = 22, -> 11000 (cout=1, out=1000)
ERRO:          12 +          11 = 23, -> 11000 (cout=1, out=1000)
ERRO:          12 +          12 = 24, -> 11100 (cout=1, out=1100)
ERRO:          12 +          13 = 25, -> 11100 (cout=1, out=1100)
ERRO:          12 +          14 = 26, -> 11100 (cout=1, out=1100)
ERRO:          12 +          15 = 27, -> 11100 (cout=1, out=1100)
ERRO:          13 +           0 = 13, -> 01001 (cout=0, out=1001)
ERRO:          13 +           1 = 14, -> 01011 (cout=0, out=1011)
ERRO:          13 +           2 = 15, -> 01001 (cout=0, out=1001)
ERRO:          13 +           3 = 16, -> 01011 (cout=0, out=1011)
ERRO:          13 +           4 = 17, -> 01101 (cout=0, out=1101)
ERRO:          13 +           5 = 18, -> 01111 (cout=0, out=1111)
ERRO:          13 +           6 = 19, -> 01101 (cout=0, out=1101)
ERRO:          13 +           7 = 20, -> 01111 (cout=0, out=1111)
ERRO:          13 +           8 = 21, -> 11001 (cout=1, out=1001)
ERRO:          13 +           9 = 22, -> 11011 (cout=1, out=1011)
ERRO:          13 +          10 = 23, -> 11001 (cout=1, out=1001)
ERRO:          13 +          11 = 24, -> 11011 (cout=1, out=1011)
ERRO:          13 +          12 = 25, -> 11101 (cout=1, out=1101)
ERRO:          13 +          13 = 26, -> 11111 (cout=1, out=1111)
ERRO:          13 +          14 = 27, -> 11101 (cout=1, out=1101)
ERRO:          13 +          15 = 28, -> 11111 (cout=1, out=1111)
ERRO:          14 +           0 = 14, -> 01010 (cout=0, out=1010)
ERRO:          14 +           1 = 15, -> 01010 (cout=0, out=1010)
ERRO:          14 +           2 = 16, -> 10110 (cout=1, out=0110)
ERRO:          14 +           3 = 17, -> 10110 (cout=1, out=0110)
ERRO:          14 +           4 = 18, -> 01110 (cout=0, out=1110)
ERRO:          14 +           5 = 19, -> 01110 (cout=0, out=1110)
ERRO:          14 +           6 = 20, -> 10010 (cout=1, out=0010)
ERRO:          14 +           7 = 21, -> 10010 (cout=1, out=0010)
ERRO:          14 +           8 = 22, -> 11010 (cout=1, out=1010)
ERRO:          14 +           9 = 23, -> 11010 (cout=1, out=1010)
ERRO:          14 +          10 = 24, -> 10110 (cout=1, out=0110)
ERRO:          14 +          11 = 25, -> 10110 (cout=1, out=0110)
ERRO:          14 +          12 = 26, -> 11110 (cout=1, out=1110)
ERRO:          14 +          13 = 27, -> 11110 (cout=1, out=1110)
ERRO:          14 +          14 = 28, -> 10010 (cout=1, out=0010)
ERRO:          14 +          15 = 29, -> 10010 (cout=1, out=0010)
ERRO:          15 +           0 = 15, -> 01011 (cout=0, out=1011)
ERRO:          15 +           1 = 16, -> 10101 (cout=1, out=0101)
ERRO:          15 +           2 = 17, -> 10111 (cout=1, out=0111)
ERRO:          15 +           3 = 18, -> 10101 (cout=1, out=0101)
ERRO:          15 +           4 = 19, -> 01111 (cout=0, out=1111)
ERRO:          15 +           5 = 20, -> 10001 (cout=1, out=0001)
ERRO:          15 +           6 = 21, -> 10011 (cout=1, out=0011)
ERRO:          15 +           7 = 22, -> 10001 (cout=1, out=0001)
ERRO:          15 +           8 = 23, -> 11011 (cout=1, out=1011)
ERRO:          15 +           9 = 24, -> 10101 (cout=1, out=0101)
ERRO:          15 +          10 = 25, -> 10111 (cout=1, out=0111)
ERRO:          15 +          11 = 26, -> 10101 (cout=1, out=0101)
ERRO:          15 +          12 = 27, -> 11111 (cout=1, out=1111)
ERRO:          15 +          13 = 28, -> 10001 (cout=1, out=0001)
ERRO:          15 +          14 = 29, -> 10011 (cout=1, out=0011)
ERRO:          15 +          15 = 30, -> 10001 (cout=1, out=0001)
tb.v:41: $finish called at 256000 (1ps)
